Longitudinal Data MCP-Mod
…
# Let's try it out:
int_dat <- intDat(dat, pct = 0.5)
int_dat

$int.time
[1] 17.08316

$dat
# A tibble: 3,003 × 9
   SUBJID  base Dose  enroll.time Visit  week cal.time response USUBJID
    <dbl> <dbl> <fct>       <dbl> <fct> <int>    <dbl>    <dbl> <chr>  
 1      1  1.78 0.5          8.69 Week0     0     8.69    0     PAT1   
 2      1  1.78 0.5          8.69 Week1     1     9.69   -0.653 PAT1   
 3      1  1.78 0.5          8.69 Week2     2    10.7    -0.221 PAT1   
 4      1  1.78 0.5          8.69 Week3     3    11.7     0.136 PAT1   
 5      1  1.78 0.5          8.69 Week4     4    12.7     0.224 PAT1   
 6      1  1.78 0.5          8.69 Week5     5    13.7    -0.420 PAT1   
 7      1  1.78 0.5          8.69 Week6     6    14.7    -0.125 PAT1   
 8      1  1.78 0.5          8.69 Week7     7    15.7    -0.442 PAT1   
 9      1  1.78 0.5          8.69 Week8     8    16.7     0.305 PAT1   
10      2  1.92 0            7.68 Week0     0     7.68    0     PAT2   
# ℹ 2,993 more rows
…
